[
    {
        "os_name": "Debian",
        "os_version": "5.0.10",
        "pkg_name": "php",
        "pkg_version": "5.2.6-1+lenny16",
        "weight": 100
    },
    {
        "os_name": "Debian",
        "os_version": "5.0.10",
        "pkg_name": "php",
        "pkg_version": "5.2.6-1+lenny15",
        "weight": 100
    },
    {
        "os_name": "Debian",
        "os_version": "5.0.10",
        "pkg_name": "php",
        "pkg_version": "5.2.6-1+lenny14",
        "weight": 100
    },
    {
        "os_name": "Debian",
        "os_version": "5.0.9",
        "pkg_name": "php",
        "pkg_version": "5.2.6-1+lenny13",
        "weight": 100
    },
    {
        "os_name": "Debian",
        "os_version": "5.0.9",
        "pkg_name": "php",
        "pkg_version": "5.2.6-1+lenny12",
        "weight": 100
    },
    {
        "os_name": "Debian",
        "os_version": "5.0.9",
        "pkg_name": "php",
        "pkg_version": "5.2.6-1+lenny11",
        "weight": 100
    },
    {
        "os_name": "Debian",
        "os_version": "5.0.9",
        "pkg_name": "php",
        "pkg_version": "5.2.6-1+lenny10",
        "weight": 100
    },
    {
        "os_name": "Debian",
        "os_version": "5.0.6",
        "pkg_name": "php",
        "pkg_version": "5.2.6-1+lenny9",
        "weight": 100
    },
    {
        "os_name": "Debian",
        "os_version": "5.0.5",
        "pkg_name": "php",
        "pkg_version": "5.2.6-1+lenny8",
        "weight": 100
    },
    {
        "os_name": "Debian",
        "os_version": "5.0.4",
        "pkg_name": "php",
        "pkg_version": "5.2.6-1+lenny4",
        "weight": 100
    },
    {
        "os_name": "Debian",
        "os_version": "5.0.2",
        "pkg_name": "php",
        "pkg_version": "5.2.6-1+lenny3",
        "weight": 100
    },
    {
        "os_name": "Debian",
        "os_version": "5.0.2",
        "pkg_name": "php",
        "pkg_version": "5.2.6-1+lenny3",
        "weight": 100
    },
    {
        "os_name": "Debian",
        "os_version": "5.0.2",
        "pkg_name": "php",
        "pkg_version": "5.2.6-1+lenny3",
        "weight": 100
    },
    {
        "os_name": "Debian",
        "os_version": "5.0.2",
        "pkg_name": "php",
        "pkg_version": "5.2.6-1+lenny3",
        "weight": 100
    },
    {
        "os_name": "Debian",
        "os_version": "5.0.2",
        "pkg_name": "php",
        "pkg_version": "5.2.6-1+lenny3",
        "weight": 100
    },
    {
        "os_name": "Debian",
        "os_version": "5.0.2",
        "pkg_name": "php",
        "pkg_version": "5.2.6-1+lenny3",
        "weight": 100
    },
    {
        "os_name": "Debian",
        "os_version": "5.0.2",
        "pkg_name": "php",
        "pkg_version": "5.2.6-1+lenny3",
        "weight": 100
    },
    {
        "os_name": "Debian",
        "os_version": "5.0.2",
        "pkg_name": "php",
        "pkg_version": "5.2.6-1+lenny3",
        "weight": 100
    },
    {
        "os_name": "Debian",
        "os_version": "5.0.2",
        "pkg_name": "php",
        "pkg_version": "5.2.6-1+lenny3",
        "weight": 100
    },
    {
        "os_name": "Debian",
        "os_version": "5.0.2",
        "pkg_name": "php",
        "pkg_version": "5.2.6-1+lenny3",
        "weight": 100
    },
    {
        "os_name": "Debian",
        "os_version": "5.0.2",
        "pkg_name": "php",
        "pkg_version": "5.2.6-1+lenny3",
        "weight": 100
    },
    {
        "os_name": "Debian",
        "os_version": "5.0.2",
        "pkg_name": "php",
        "pkg_version": "5.2.6-1+lenny3",
        "weight": 100
    },
    {
        "os_name": "Debian",
        "os_version": "7.9",
        "pkg_name": "php",
        "pkg_version": "5.4.44-0+deb7u1",
        "weight": 100
    },
    {
        "os_name": "Debian",
        "os_version": "7.9",
        "pkg_name": "php",
        "pkg_version": "5.4.41-0+deb7u1",
        "weight": 100
    },
    {
        "os_name": "Debian",
        "os_version": "7.9",
        "pkg_name": "php",
        "pkg_version": "5.4.39-0+deb7u2",
        "weight": 100
    },
    {
        "os_name": "Debian",
        "os_version": "7.9",
        "pkg_name": "php",
        "pkg_version": "5.4.39-0+deb7u1",
        "weight": 100
    },
    {
        "os_name": "Debian",
        "os_version": "7.9",
        "pkg_name": "php",
        "pkg_version": "5.4.38-0+deb7u1",
        "weight": 100
    },
    {
        "os_name": "Debian",
        "os_version": "7.9",
        "pkg_name": "php",
        "pkg_version": "5.4.36-0+deb7u3",
        "weight": 100
    },
    {
        "os_name": "Debian",
        "os_version": "7.8",
        "pkg_name": "php",
        "pkg_version": "5.4.36-0+deb7u1",
        "weight": 100
    },
    {
        "os_name": "Debian",
        "os_version": "7.8",
        "pkg_name": "php",
        "pkg_version": "5.4.35-0+deb7u1",
        "weight": 100
    },
    {
        "os_name": "Debian",
        "os_version": "7.8",
        "pkg_name": "php",
        "pkg_version": "5.4.34-0+deb7u1",
        "weight": 100
    },
    {
        "os_name": "Debian",
        "os_version": "7.8",
        "pkg_name": "php",
        "pkg_version": "5.4.15-1",
        "weight": 100
    },
    {
        "os_name": "Debian",
        "os_version": "7.8",
        "pkg_name": "php",
        "pkg_version": "5.4.11-1",
        "weight": 100
    },
    {
        "os_name": "Debian",
        "os_version": "7.8",
        "pkg_name": "php",
        "pkg_version": "5.4.9-4",
        "weight": 100
    },
    {
        "os_name": "Debian",
        "os_version": "7.8",
        "pkg_name": "php",
        "pkg_version": "5.4.9-3",
        "weight": 100
    },
    {
        "os_name": "Debian",
        "os_version": "7.8",
        "pkg_name": "php",
        "pkg_version": "5.4.9-2",
        "weight": 100
    },
    {
        "os_name": "Debian",
        "os_version": "7.8",
        "pkg_name": "php",
        "pkg_version": "5.4.9-1",
        "weight": 100
    },
    {
        "os_name": "Debian",
        "os_version": "7.8",
        "pkg_name": "php",
        "pkg_version": "5.4.8-1",
        "weight": 100
    },
    {
        "os_name": "Debian",
        "os_version": "7.8",
        "pkg_name": "php",
        "pkg_version": "5.4.6-2",
        "weight": 100
    },
    {
        "os_name": "Debian",
        "os_version": "7.8",
        "pkg_name": "php",
        "pkg_version": "5.4.6-1",
        "weight": 100
    },
    {
        "os_name": "Debian",
        "os_version": "7.8",
        "pkg_name": "php",
        "pkg_version": "5.4.4-15.1",
        "weight": 100
    },
    {
        "os_name": "Debian",
        "os_version": "7.8",
        "pkg_name": "php",
        "pkg_version": "5.4.4-15",
        "weight": 100
    },
    {
        "os_name": "Debian",
        "os_version": "7.7",
        "pkg_name": "php",
        "pkg_version": "5.4.4-14+deb7u14",
        "weight": 100
    },
    {
        "os_name": "Debian",
        "os_version": "7.7",
        "pkg_name": "php",
        "pkg_version": "5.4.4-14+deb7u13",
        "weight": 100
    },
    {
        "os_name": "Debian",
        "os_version": "7.7",
        "pkg_name": "php",
        "pkg_version": "5.4.4-14+deb7u12",
        "weight": 100
    },
    {
        "os_name": "Debian",
        "os_version": "7.6",
        "pkg_name": "php",
        "pkg_version": "5.4.4-14+deb7u11",
        "weight": 100
    },
    {
        "os_name": "Debian",
        "os_version": "7.6",
        "pkg_name": "php",
        "pkg_version": "5.4.4-14+deb7u10",
        "weight": 100
    },
    {
        "os_name": "Debian",
        "os_version": "7.5",
        "pkg_name": "php",
        "pkg_version": "5.4.4-14+deb7u9",
        "weight": 100
    },
    {
        "os_name": "Debian",
        "os_version": "7.5",
        "pkg_name": "php",
        "pkg_version": "5.4.4-14+deb7u8",
        "weight": 100
    },
    {
        "os_name": "Debian",
        "os_version": "7.4",
        "pkg_name": "php",
        "pkg_version": "5.4.4-14+deb7u7",
        "weight": 100
    },
    {
        "os_name": "Debian",
        "os_version": "7.2",
        "pkg_name": "php",
        "pkg_version": "5.4.4-14+deb7u5",
        "weight": 100
    },
    {
        "os_name": "Debian",
        "os_version": "7.2",
        "pkg_name": "php",
        "pkg_version": "5.4.4-14+deb7u4",
        "weight": 100
    },
    {
        "os_name": "Debian",
        "os_version": "7.2",
        "pkg_name": "php",
        "pkg_version": "5.4.4-14+deb7u3",
        "weight": 100
    },
    {
        "os_name": "Debian",
        "os_version": "7.1",
        "pkg_name": "php",
        "pkg_version": "5.4.4-14+deb7u2",
        "weight": 100
    },
    {
        "os_name": "Debian",
        "os_version": "7.1",
        "pkg_name": "php",
        "pkg_version": "5.4.4-14+deb7u1",
        "weight": 100
    },
    {
        "os_name": "Debian",
        "os_version": "8.3",
        "pkg_name": "php",
        "pkg_version": "5.6.17+dfsg-0+deb8u1",
        "weight": 100
    },
    {
        "os_name": "Debian",
        "os_version": "8.3",
        "pkg_name": "php",
        "pkg_version": "5.6.16+dfsg-4",
        "weight": 100
    },
    {
        "os_name": "Debian",
        "os_version": "8.3",
        "pkg_name": "php",
        "pkg_version": "5.6.16+dfsg-3",
        "weight": 100
    },
    {
        "os_name": "Debian",
        "os_version": "8.3",
        "pkg_name": "php",
        "pkg_version": "5.6.16+dfsg-2",
        "weight": 100
    },
    {
        "os_name": "Debian",
        "os_version": "8.3",
        "pkg_name": "php",
        "pkg_version": "5.6.16+dfsg-1",
        "weight": 100
    },
    {
        "os_name": "Debian",
        "os_version": "8.3",
        "pkg_name": "php",
        "pkg_version": "5.6.15+dfsg-1",
        "weight": 100
    },
    {
        "os_name": "Debian",
        "os_version": "8.3",
        "pkg_name": "php",
        "pkg_version": "5.6.14+dfsg-1",
        "weight": 100
    },
    {
        "os_name": "Debian",
        "os_version": "8.3",
        "pkg_name": "php",
        "pkg_version": "5.6.14+dfsg-0+deb8u1",
        "weight": 100
    },
    {
        "os_name": "Debian",
        "os_version": "8.3",
        "pkg_name": "php",
        "pkg_version": "5.6.13+dfsg-2",
        "weight": 100
    },
    {
        "os_name": "Debian",
        "os_version": "8.3",
        "pkg_name": "php",
        "pkg_version": "5.6.13+dfsg-1",
        "weight": 100
    },
    {
        "os_name": "Debian",
        "os_version": "8.3",
        "pkg_name": "php",
        "pkg_version": "5.6.13+dfsg-0+deb8u1",
        "weight": 100
    },
    {
        "os_name": "Debian",
        "os_version": "8.3",
        "pkg_name": "php",
        "pkg_version": "5.6.12+dfsg-1",
        "weight": 100
    },
    {
        "os_name": "Debian",
        "os_version": "8.3",
        "pkg_name": "php",
        "pkg_version": "5.6.12+dfsg-0+deb8u1",
        "weight": 100
    },
    {
        "os_name": "Debian",
        "os_version": "8.3",
        "pkg_name": "php",
        "pkg_version": "5.6.11+dfsg-1",
        "weight": 100
    },
    {
        "os_name": "Debian",
        "os_version": "8.3",
        "pkg_name": "php",
        "pkg_version": "5.6.9+dfsg-1",
        "weight": 100
    },
    {
        "os_name": "Debian",
        "os_version": "8.3",
        "pkg_name": "php",
        "pkg_version": "5.6.9+dfsg-0+deb8u1",
        "weight": 100
    },
    {
        "os_name": "Debian",
        "os_version": "6.0.10 (LTS)",
        "pkg_name": "php",
        "pkg_version": "5.3.3.1-7+squeeze29",
        "weight": 100
    },
    {
        "os_name": "Debian",
        "os_version": "6.0.10 (LTS)",
        "pkg_name": "php",
        "pkg_version": "5.3.3.1-7+squeeze28",
        "weight": 100
    },
    {
        "os_name": "Debian",
        "os_version": "6.0.10 (LTS)",
        "pkg_name": "php",
        "pkg_version": "5.3.3.1-7+squeeze27",
        "weight": 100
    },
    {
        "os_name": "Debian",
        "os_version": "6.0.10 (LTS)",
        "pkg_name": "php",
        "pkg_version": "5.3.3.1-7+squeeze26",
        "weight": 100
    },
    {
        "os_name": "Debian",
        "os_version": "6.0.10 (LTS)",
        "pkg_name": "php",
        "pkg_version": "5.3.3-7+squeeze25",
        "weight": 100
    },
    {
        "os_name": "Debian",
        "os_version": "6.0.10 (LTS)",
        "pkg_name": "php",
        "pkg_version": "5.3.3-7+squeeze24",
        "weight": 100
    },
    {
        "os_name": "Debian",
        "os_version": "6.0.10 (LTS)",
        "pkg_name": "php",
        "pkg_version": "5.3.3-7+squeeze23",
        "weight": 100
    },
    {
        "os_name": "Debian",
        "os_version": "6.0.10 (LTS)",
        "pkg_name": "php",
        "pkg_version": "5.3.3-7+squeeze22",
        "weight": 100
    },
    {
        "os_name": "Debian",
        "os_version": "6.0.10 (LTS)",
        "pkg_name": "php",
        "pkg_version": "5.3.3-7+squeeze21",
        "weight": 100
    },
    {
        "os_name": "Debian",
        "os_version": "6.0.10 (LTS)",
        "pkg_name": "php",
        "pkg_version": "5.3.3-7+squeeze20",
        "weight": 100
    }
]