[
    {
        "os_name": "FreeBSD",
        "os_version": "4.11",
        "pkg_name": "Apache",
        "pkg_version": "2.0.52"
    },
    {
        "os_name": "FreeBSD",
        "os_version": "4.11",
        "pkg_name": "Apache",
        "pkg_version": "2.0.52"
    },
    {
        "os_name": "FreeBSD",
        "os_version": "5.5",
        "pkg_name": "Apache",
        "pkg_version": "2.2.0"
    },
    {
        "os_name": "FreeBSD",
        "os_version": "5.5",
        "pkg_name": "Apache",
        "pkg_version": "2.2.0"
    },
    {
        "os_name": "FreeBSD",
        "os_version": "7.4",
        "pkg_name": "Apache",
        "pkg_version": "2.2.17"
    },
    {
        "os_name": "FreeBSD",
        "os_version": "7.4",
        "pkg_name": "Apache",
        "pkg_version": "2.2.17"
    },
    {
        "os_name": "FreeBSD",
        "os_version": "8.2",
        "pkg_name": "Apache",
        "pkg_version": "2.2.17"
    },
    {
        "os_name": "FreeBSD",
        "os_version": "8.2",
        "pkg_name": "Apache",
        "pkg_version": "2.2.17"
    },
    {
        "os_name": "FreeBSD",
        "os_version": "6.4",
        "pkg_name": "Apache",
        "pkg_version": "2.2.9"
    },
    {
        "os_name": "FreeBSD",
        "os_version": "6.4",
        "pkg_name": "Apache",
        "pkg_version": "2.2.9"
    },
    {
        "os_name": "FreeBSD",
        "os_version": "10",
        "pkg_name": "Apache",
        "pkg_version": "2.4.12"
    },
    {
        "os_name": "FreeBSD",
        "os_version": "11",
        "pkg_name": "Apache",
        "pkg_version": "2.4.12"
    },
    {
        "os_name": "FreeBSD",
        "os_version": "10.2",
        "pkg_name": "Apache",
        "pkg_version": "2.4.16"
    },
    {
        "os_name": "FreeBSD",
        "os_version": "10.2",
        "pkg_name": "Apache",
        "pkg_version": "2.4.16"
    },
    {
        "os_name": "FreeBSD",
        "os_version": "10",
        "pkg_name": "Apache",
        "pkg_version": "2.4.17"
    },
    {
        "os_name": "FreeBSD",
        "os_version": "11",
        "pkg_name": "Apache",
        "pkg_version": "2.4.17"
    },
    {
        "os_name": "FreeBSD",
        "os_version": "10",
        "pkg_name": "Apache",
        "pkg_version": "2.4.18"
    },
    {
        "os_name": "FreeBSD",
        "os_version": "10",
        "pkg_name": "Apache",
        "pkg_version": "2.4.18"
    },
    {
        "os_name": "FreeBSD",
        "os_version": "11",
        "pkg_name": "Apache",
        "pkg_version": "2.4.18"
    },
    {
        "os_name": "FreeBSD",
        "os_version": "11",
        "pkg_name": "Apache",
        "pkg_version": "2.4.18"
    },
    {
        "os_name": "FreeBSD",
        "os_version": "10.1",
        "pkg_name": "Apache",
        "pkg_version": "2.4.6"
    },
    {
        "os_name": "FreeBSD",
        "os_version": "10.2",
        "pkg_name": "Apache",
        "pkg_version": "2.4.6"
    },
    {
        "os_name": "FreeBSD",
        "os_version": "9.3",
        "pkg_name": "Apache",
        "pkg_version": "2.4.9"
    },
    {
        "os_name": "FreeBSD",
        "os_version": "9.3",
        "pkg_name": "Apache",
        "pkg_version": "2.4.9"
    },
    {
        "os_name": "FreeBSD",
        "os_version": "4.11",
        "pkg_name": "Apache",
        "pkg_version": "8.13.2"
    },
    {
        "os_name": "FreeBSD",
        "os_version": "5.5",
        "pkg_name": "Apache",
        "pkg_version": "8.13.5"
    },
    {
        "os_name": "FreeBSD",
        "os_version": "6.4",
        "pkg_name": "Apache",
        "pkg_version": "8.14.3"
    },
    {
        "os_name": "FreeBSD",
        "os_version": "7.4",
        "pkg_name": "Apache",
        "pkg_version": "8.14.4"
    },
    {
        "os_name": "FreeBSD",
        "os_version": "8.2",
        "pkg_name": "Apache",
        "pkg_version": "8.14.4"
    },
    {
        "os_name": "FreeBSD",
        "os_version": "10.1",
        "pkg_name": "Apache",
        "pkg_version": "8.14.7"
    },
    {
        "os_name": "FreeBSD",
        "os_version": "9.3",
        "pkg_name": "Apache",
        "pkg_version": "8.14.8"
    },
    {
        "os_name": "FreeBSD",
        "os_version": "8.2",
        "pkg_name": "apache-tomcat",
        "pkg_version": "4.1.36"
    },
    {
        "os_name": "FreeBSD",
        "os_version": "8.2",
        "pkg_name": "apache-tomcat",
        "pkg_version": "4.1.36"
    },
    {
        "os_name": "FreeBSD",
        "os_version": "4.11",
        "pkg_name": "apache-tomcat",
        "pkg_version": "5.0.30"
    },
    {
        "os_name": "FreeBSD",
        "os_version": "4.11",
        "pkg_name": "apache-tomcat",
        "pkg_version": "5.0.30"
    },
    {
        "os_name": "FreeBSD",
        "os_version": "5.5",
        "pkg_name": "apache-tomcat",
        "pkg_version": "5.0.30"
    },
    {
        "os_name": "FreeBSD",
        "os_version": "5.5",
        "pkg_name": "apache-tomcat",
        "pkg_version": "5.0.30"
    },
    {
        "os_name": "FreeBSD",
        "os_version": "6.4",
        "pkg_name": "apache-tomcat",
        "pkg_version": "6.0.16"
    },
    {
        "os_name": "FreeBSD",
        "os_version": "6.4",
        "pkg_name": "apache-tomcat",
        "pkg_version": "6.0.16"
    },
    {
        "os_name": "FreeBSD",
        "os_version": "9.3",
        "pkg_name": "apache-tomcat",
        "pkg_version": "6.0.37"
    },
    {
        "os_name": "FreeBSD",
        "os_version": "10",
        "pkg_name": "apache-tomcat",
        "pkg_version": "6.0.44"
    },
    {
        "os_name": "FreeBSD",
        "os_version": "11",
        "pkg_name": "apache-tomcat",
        "pkg_version": "6.0.44"
    },
    {
        "os_name": "FreeBSD",
        "os_version": "10.1",
        "pkg_name": "apache-tomcat",
        "pkg_version": "7.0.40"
    },
    {
        "os_name": "FreeBSD",
        "os_version": "10.2",
        "pkg_name": "apache-tomcat",
        "pkg_version": "7.0.40"
    },
    {
        "os_name": "FreeBSD",
        "os_version": "9.3",
        "pkg_name": "apache-tomcat",
        "pkg_version": "7.0.50"
    },
    {
        "os_name": "FreeBSD",
        "os_version": "9.3",
        "pkg_name": "apache-tomcat",
        "pkg_version": "7.0.50"
    },
    {
        "os_name": "FreeBSD",
        "os_version": "7.4",
        "pkg_name": "apache-tomcat",
        "pkg_version": "7.0.6"
    },
    {
        "os_name": "FreeBSD",
        "os_version": "7.4",
        "pkg_name": "apache-tomcat",
        "pkg_version": "7.0.6"
    },
    {
        "os_name": "FreeBSD",
        "os_version": "10.2",
        "pkg_name": "apache-tomcat",
        "pkg_version": "8.0.18"
    },
    {
        "os_name": "FreeBSD",
        "os_version": "10.2",
        "pkg_name": "apache-tomcat",
        "pkg_version": "8.0.18"
    },
    {
        "os_name": "FreeBSD",
        "os_version": "10",
        "pkg_name": "apache-tomcat",
        "pkg_version": "8.0.28"
    },
    {
        "os_name": "FreeBSD",
        "os_version": "11",
        "pkg_name": "apache-tomcat",
        "pkg_version": "8.0.28"
    },
    {
        "os_name": "FreeBSD",
        "os_version": "10",
        "pkg_name": "apache-tomcat",
        "pkg_version": "8.0.30"
    },
    {
        "os_name": "FreeBSD",
        "os_version": "10",
        "pkg_name": "apache-tomcat",
        "pkg_version": "8.0.30"
    },
    {
        "os_name": "FreeBSD",
        "os_version": "11",
        "pkg_name": "apache-tomcat",
        "pkg_version": "8.0.30"
    },
    {
        "os_name": "FreeBSD",
        "os_version": "11",
        "pkg_name": "apache-tomcat",
        "pkg_version": "8.0.30"
    },
    {
        "os_name": "FreeBSD",
        "os_version": "4.11",
        "pkg_name": "lighttpd",
        "pkg_version": "1.3.7"
    },
    {
        "os_name": "FreeBSD",
        "os_version": "4.11",
        "pkg_name": "lighttpd",
        "pkg_version": "1.3.7"
    },
    {
        "os_name": "FreeBSD",
        "os_version": "5.5",
        "pkg_name": "lighttpd",
        "pkg_version": "1.4.10"
    },
    {
        "os_name": "FreeBSD",
        "os_version": "5.5",
        "pkg_name": "lighttpd",
        "pkg_version": "1.4.10"
    },
    {
        "os_name": "FreeBSD",
        "os_version": "6.4",
        "pkg_name": "lighttpd",
        "pkg_version": "1.4.19"
    },
    {
        "os_name": "FreeBSD",
        "os_version": "6.4",
        "pkg_name": "lighttpd",
        "pkg_version": "1.4.19"
    },
    {
        "os_name": "FreeBSD",
        "os_version": "7.4",
        "pkg_name": "lighttpd",
        "pkg_version": "1.4.28"
    },
    {
        "os_name": "FreeBSD",
        "os_version": "7.4",
        "pkg_name": "lighttpd",
        "pkg_version": "1.4.28"
    },
    {
        "os_name": "FreeBSD",
        "os_version": "8.2",
        "pkg_name": "lighttpd",
        "pkg_version": "1.4.28"
    },
    {
        "os_name": "FreeBSD",
        "os_version": "8.2",
        "pkg_name": "lighttpd",
        "pkg_version": "1.4.28"
    },
    {
        "os_name": "FreeBSD",
        "os_version": "10.1",
        "pkg_name": "lighttpd",
        "pkg_version": "1.4.33"
    },
    {
        "os_name": "FreeBSD",
        "os_version": "10.2",
        "pkg_name": "lighttpd",
        "pkg_version": "1.4.33"
    },
    {
        "os_name": "FreeBSD",
        "os_version": "10",
        "pkg_name": "lighttpd",
        "pkg_version": "1.4.35"
    },
    {
        "os_name": "FreeBSD",
        "os_version": "10.2",
        "pkg_name": "lighttpd",
        "pkg_version": "1.4.35"
    },
    {
        "os_name": "FreeBSD",
        "os_version": "10.2",
        "pkg_name": "lighttpd",
        "pkg_version": "1.4.35"
    },
    {
        "os_name": "FreeBSD",
        "os_version": "11",
        "pkg_name": "lighttpd",
        "pkg_version": "1.4.35"
    },
    {
        "os_name": "FreeBSD",
        "os_version": "9.3",
        "pkg_name": "lighttpd",
        "pkg_version": "1.4.35"
    },
    {
        "os_name": "FreeBSD",
        "os_version": "9.3",
        "pkg_name": "lighttpd",
        "pkg_version": "1.4.35"
    },
    {
        "os_name": "FreeBSD",
        "os_version": "10",
        "pkg_name": "lighttpd",
        "pkg_version": "1.4.37"
    },
    {
        "os_name": "FreeBSD",
        "os_version": "11",
        "pkg_name": "lighttpd",
        "pkg_version": "1.4.37"
    },
    {
        "os_name": "FreeBSD",
        "os_version": "10",
        "pkg_name": "lighttpd",
        "pkg_version": "1.4.38"
    },
    {
        "os_name": "FreeBSD",
        "os_version": "11",
        "pkg_name": "lighttpd",
        "pkg_version": "1.4.38"
    },
    {
        "os_name": "FreeBSD",
        "os_version": "10",
        "pkg_name": "lighttpd",
        "pkg_version": "1.4.39"
    },
    {
        "os_name": "FreeBSD",
        "os_version": "10",
        "pkg_name": "lighttpd",
        "pkg_version": "1.4.39"
    },
    {
        "os_name": "FreeBSD",
        "os_version": "11",
        "pkg_name": "lighttpd",
        "pkg_version": "1.4.39"
    },
    {
        "os_name": "FreeBSD",
        "os_version": "11",
        "pkg_name": "lighttpd",
        "pkg_version": "1.4.39"
    },
    {
        "os_name": "FreeBSD",
        "os_version": "7.4",
        "pkg_name": "lighttpd",
        "pkg_version": "3.2.12"
    },
    {
        "os_name": "FreeBSD",
        "os_version": "8.2",
        "pkg_name": "lighttpd",
        "pkg_version": "3.2.12"
    },
    {
        "os_name": "FreeBSD",
        "os_version": "10.1",
        "pkg_name": "lighttpd",
        "pkg_version": "4.2.20"
    },
    {
        "os_name": "FreeBSD",
        "os_version": "9.3",
        "pkg_name": "lighttpd",
        "pkg_version": "4.3.10"
    },
    {
        "os_name": "FreeBSD",
        "os_version": "6.4",
        "pkg_name": "mod_perl",
        "pkg_version": "0.99.11"
    },
    {
        "os_name": "FreeBSD",
        "os_version": "7.4",
        "pkg_name": "mod_perl",
        "pkg_version": "1.0svn"
    },
    {
        "os_name": "FreeBSD",
        "os_version": "8.2",
        "pkg_name": "mod_perl",
        "pkg_version": "1.0svn"
    },
    {
        "os_name": "FreeBSD",
        "os_version": "10.1",
        "pkg_name": "mod_perl",
        "pkg_version": "1.1svn"
    },
    {
        "os_name": "FreeBSD",
        "os_version": "9.3",
        "pkg_name": "mod_perl",
        "pkg_version": "1.1svn"
    },
    {
        "os_name": "FreeBSD",
        "os_version": "2.2.8",
        "pkg_name": "mod_perl",
        "pkg_version": "1.24"
    },
    {
        "os_name": "FreeBSD",
        "os_version": "2.2.8",
        "pkg_name": "mod_perl",
        "pkg_version": "1.24"
    },
    {
        "os_name": "FreeBSD",
        "os_version": "3.5",
        "pkg_name": "mod_perl",
        "pkg_version": "1.24"
    },
    {
        "os_name": "FreeBSD",
        "os_version": "3.5",
        "pkg_name": "mod_perl",
        "pkg_version": "1.24"
    },
    {
        "os_name": "FreeBSD",
        "os_version": "4.11",
        "pkg_name": "mod_perl",
        "pkg_version": "1.29"
    },
    {
        "os_name": "FreeBSD",
        "os_version": "4.11",
        "pkg_name": "mod_perl",
        "pkg_version": "1.29"
    },
    {
        "os_name": "FreeBSD",
        "os_version": "5.5",
        "pkg_name": "mod_perl",
        "pkg_version": "1.29"
    },
    {
        "os_name": "FreeBSD",
        "os_version": "5.5",
        "pkg_name": "mod_perl",
        "pkg_version": "1.29"
    },
    {
        "os_name": "FreeBSD",
        "os_version": "6.4",
        "pkg_name": "mod_perl",
        "pkg_version": "2.0.4"
    },
    {
        "os_name": "FreeBSD",
        "os_version": "6.4",
        "pkg_name": "mod_perl",
        "pkg_version": "2.0.4"
    },
    {
        "os_name": "FreeBSD",
        "os_version": "7.4",
        "pkg_name": "mod_perl",
        "pkg_version": "2.0.4"
    },
    {
        "os_name": "FreeBSD",
        "os_version": "7.4",
        "pkg_name": "mod_perl",
        "pkg_version": "2.0.4"
    },
    {
        "os_name": "FreeBSD",
        "os_version": "8.2",
        "pkg_name": "mod_perl",
        "pkg_version": "2.0.4"
    },
    {
        "os_name": "FreeBSD",
        "os_version": "8.2",
        "pkg_name": "mod_perl",
        "pkg_version": "2.0.4"
    },
    {
        "os_name": "FreeBSD",
        "os_version": "10.1",
        "pkg_name": "mod_perl",
        "pkg_version": "2.0.8"
    },
    {
        "os_name": "FreeBSD",
        "os_version": "10.2",
        "pkg_name": "mod_perl",
        "pkg_version": "2.0.8"
    },
    {
        "os_name": "FreeBSD",
        "os_version": "9.3",
        "pkg_name": "mod_perl",
        "pkg_version": "2.0.8"
    },
    {
        "os_name": "FreeBSD",
        "os_version": "9.3",
        "pkg_name": "mod_perl",
        "pkg_version": "2.0.8"
    },
    {
        "os_name": "FreeBSD",
        "os_version": "10",
        "pkg_name": "mod_perl",
        "pkg_version": "2.0.9"
    },
    {
        "os_name": "FreeBSD",
        "os_version": "10",
        "pkg_name": "mod_perl",
        "pkg_version": "2.0.9"
    },
    {
        "os_name": "FreeBSD",
        "os_version": "10.2",
        "pkg_name": "mod_perl",
        "pkg_version": "2.0.9"
    },
    {
        "os_name": "FreeBSD",
        "os_version": "10.2",
        "pkg_name": "mod_perl",
        "pkg_version": "2.0.9"
    },
    {
        "os_name": "FreeBSD",
        "os_version": "11",
        "pkg_name": "mod_perl",
        "pkg_version": "2.0.9"
    },
    {
        "os_name": "FreeBSD",
        "os_version": "11",
        "pkg_name": "mod_perl",
        "pkg_version": "2.0.9"
    },
    {
        "os_name": "FreeBSD",
        "os_version": "4.11",
        "pkg_name": "nginx",
        "pkg_version": "0.1.13"
    },
    {
        "os_name": "FreeBSD",
        "os_version": "4.11",
        "pkg_name": "nginx",
        "pkg_version": "0.1.13"
    },
    {
        "os_name": "FreeBSD",
        "os_version": "5.5",
        "pkg_name": "nginx",
        "pkg_version": "0.3.30"
    },
    {
        "os_name": "FreeBSD",
        "os_version": "5.5",
        "pkg_name": "nginx",
        "pkg_version": "0.3.30"
    },
    {
        "os_name": "FreeBSD",
        "os_version": "6.4",
        "pkg_name": "nginx",
        "pkg_version": "0.6.32"
    },
    {
        "os_name": "FreeBSD",
        "os_version": "6.4",
        "pkg_name": "nginx",
        "pkg_version": "0.6.32"
    },
    {
        "os_name": "FreeBSD",
        "os_version": "7.4",
        "pkg_name": "nginx",
        "pkg_version": "0.8.54"
    },
    {
        "os_name": "FreeBSD",
        "os_version": "7.4",
        "pkg_name": "nginx",
        "pkg_version": "0.8.54"
    },
    {
        "os_name": "FreeBSD",
        "os_version": "8.2",
        "pkg_name": "nginx",
        "pkg_version": "0.8.54"
    },
    {
        "os_name": "FreeBSD",
        "os_version": "8.2",
        "pkg_name": "nginx",
        "pkg_version": "0.8.54"
    },
    {
        "os_name": "FreeBSD",
        "os_version": "10.1",
        "pkg_name": "nginx",
        "pkg_version": "1.4.4"
    },
    {
        "os_name": "FreeBSD",
        "os_version": "10.2",
        "pkg_name": "nginx",
        "pkg_version": "1.4.4"
    },
    {
        "os_name": "FreeBSD",
        "os_version": "9.3",
        "pkg_name": "nginx",
        "pkg_version": "1.4.7"
    },
    {
        "os_name": "FreeBSD",
        "os_version": "9.3",
        "pkg_name": "nginx",
        "pkg_version": "1.4.7"
    },
    {
        "os_name": "FreeBSD",
        "os_version": "2.2.8",
        "pkg_name": "nginx",
        "pkg_version": "1.51"
    },
    {
        "os_name": "FreeBSD",
        "os_version": "10",
        "pkg_name": "nginx",
        "pkg_version": "1.6.2"
    },
    {
        "os_name": "FreeBSD",
        "os_version": "11",
        "pkg_name": "nginx",
        "pkg_version": "1.6.2"
    },
    {
        "os_name": "FreeBSD",
        "os_version": "10",
        "pkg_name": "nginx",
        "pkg_version": "1.6.3"
    },
    {
        "os_name": "FreeBSD",
        "os_version": "11",
        "pkg_name": "nginx",
        "pkg_version": "1.6.3"
    },
    {
        "os_name": "FreeBSD",
        "os_version": "10",
        "pkg_name": "nginx",
        "pkg_version": "1.8.0"
    },
    {
        "os_name": "FreeBSD",
        "os_version": "10.2",
        "pkg_name": "nginx",
        "pkg_version": "1.8.0"
    },
    {
        "os_name": "FreeBSD",
        "os_version": "10.2",
        "pkg_name": "nginx",
        "pkg_version": "1.8.0"
    },
    {
        "os_name": "FreeBSD",
        "os_version": "11",
        "pkg_name": "nginx",
        "pkg_version": "1.8.0"
    },
    {
        "os_name": "FreeBSD",
        "os_version": "10",
        "pkg_name": "nginx",
        "pkg_version": "1.8.1"
    },
    {
        "os_name": "FreeBSD",
        "os_version": "10",
        "pkg_name": "nginx",
        "pkg_version": "1.8.1"
    },
    {
        "os_name": "FreeBSD",
        "os_version": "11",
        "pkg_name": "nginx",
        "pkg_version": "1.8.1"
    },
    {
        "os_name": "FreeBSD",
        "os_version": "11",
        "pkg_name": "nginx",
        "pkg_version": "1.8.1"
    },
    {
        "os_name": "FreeBSD",
        "os_version": "3.5",
        "pkg_name": "nginx",
        "pkg_version": "2.53"
    },
    {
        "os_name": "FreeBSD",
        "os_version": "4.11",
        "pkg_name": "nginx",
        "pkg_version": "3.77"
    },
    {
        "os_name": "FreeBSD",
        "os_version": "5.5",
        "pkg_name": "nginx",
        "pkg_version": "4.01"
    },
    {
        "os_name": "FreeBSD",
        "os_version": "6.4",
        "pkg_name": "nginx",
        "pkg_version": "4.68"
    },
    {
        "os_name": "FreeBSD",
        "os_version": "7.4",
        "pkg_name": "nginx",
        "pkg_version": "5.50"
    },
    {
        "os_name": "FreeBSD",
        "os_version": "8.2",
        "pkg_name": "nginx",
        "pkg_version": "5.50"
    },
    {
        "os_name": "FreeBSD",
        "os_version": "10.1",
        "pkg_name": "nginx",
        "pkg_version": "6.40"
    },
    {
        "os_name": "FreeBSD",
        "os_version": "9.3",
        "pkg_name": "nginx",
        "pkg_version": "6.40"
    },
    {
        "os_name": "FreeBSD",
        "os_version": "4.11",
        "pkg_name": "openssl",
        "pkg_version": "0.9.7e"
    },
    {
        "os_name": "FreeBSD",
        "os_version": "4.11",
        "pkg_name": "openssl",
        "pkg_version": "0.9.7e"
    },
    {
        "os_name": "FreeBSD",
        "os_version": "5.5",
        "pkg_name": "openssl",
        "pkg_version": "0.9.8a"
    },
    {
        "os_name": "FreeBSD",
        "os_version": "5.5",
        "pkg_name": "openssl",
        "pkg_version": "0.9.8a"
    },
    {
        "os_name": "FreeBSD",
        "os_version": "6.4",
        "pkg_name": "openssl",
        "pkg_version": "0.9.8h"
    },
    {
        "os_name": "FreeBSD",
        "os_version": "6.4",
        "pkg_name": "openssl",
        "pkg_version": "0.9.8h"
    },
    {
        "os_name": "FreeBSD",
        "os_version": "8.2",
        "pkg_name": "openssl",
        "pkg_version": "1.0.0"
    },
    {
        "os_name": "FreeBSD",
        "os_version": "8.2",
        "pkg_name": "openssl",
        "pkg_version": "1.0.0"
    },
    {
        "os_name": "FreeBSD",
        "os_version": "7.4",
        "pkg_name": "openssl",
        "pkg_version": "1.0.0d"
    },
    {
        "os_name": "FreeBSD",
        "os_version": "7.4",
        "pkg_name": "openssl",
        "pkg_version": "1.0.0d"
    },
    {
        "os_name": "FreeBSD",
        "os_version": "10.1",
        "pkg_name": "openssl",
        "pkg_version": "1.0.1"
    },
    {
        "os_name": "FreeBSD",
        "os_version": "10.2",
        "pkg_name": "openssl",
        "pkg_version": "1.0.1"
    },
    {
        "os_name": "FreeBSD",
        "os_version": "9.3",
        "pkg_name": "openssl",
        "pkg_version": "1.0.1"
    },
    {
        "os_name": "FreeBSD",
        "os_version": "9.3",
        "pkg_name": "openssl",
        "pkg_version": "1.0.1"
    },
    {
        "os_name": "FreeBSD",
        "os_version": "10",
        "pkg_name": "openssl",
        "pkg_version": "1.0.1_18"
    },
    {
        "os_name": "FreeBSD",
        "os_version": "11",
        "pkg_name": "openssl",
        "pkg_version": "1.0.1_18"
    },
    {
        "os_name": "FreeBSD",
        "os_version": "10",
        "pkg_name": "openssl",
        "pkg_version": "1.0.2"
    },
    {
        "os_name": "FreeBSD",
        "os_version": "10",
        "pkg_name": "openssl",
        "pkg_version": "1.0.2"
    },
    {
        "os_name": "FreeBSD",
        "os_version": "10.2",
        "pkg_name": "openssl",
        "pkg_version": "1.0.2"
    },
    {
        "os_name": "FreeBSD",
        "os_version": "10.2",
        "pkg_name": "openssl",
        "pkg_version": "1.0.2"
    },
    {
        "os_name": "FreeBSD",
        "os_version": "11",
        "pkg_name": "openssl",
        "pkg_version": "1.0.2"
    },
    {
        "os_name": "FreeBSD",
        "os_version": "11",
        "pkg_name": "openssl",
        "pkg_version": "1.0.2"
    },
    {
        "os_name": "FreeBSD",
        "os_version": "7.4",
        "pkg_name": "openssl",
        "pkg_version": "11.01"
    },
    {
        "os_name": "FreeBSD",
        "os_version": "8.2",
        "pkg_name": "openssl",
        "pkg_version": "11.01"
    },
    {
        "os_name": "FreeBSD",
        "os_version": "10.1",
        "pkg_name": "openssl",
        "pkg_version": "12.16"
    },
    {
        "os_name": "FreeBSD",
        "os_version": "9.3",
        "pkg_name": "openssl",
        "pkg_version": "12.16"
    },
    {
        "os_name": "FreeBSD",
        "os_version": "4.11",
        "pkg_name": "openssl",
        "pkg_version": "7.54"
    },
    {
        "os_name": "FreeBSD",
        "os_version": "5.5",
        "pkg_name": "openssl",
        "pkg_version": "8.51"
    },
    {
        "os_name": "FreeBSD",
        "os_version": "6.4",
        "pkg_name": "openssl",
        "pkg_version": "9.26"
    },
    {
        "os_name": "FreeBSD",
        "os_version": "4.11",
        "pkg_name": "perl",
        "pkg_version": "5.0.3"
    },
    {
        "os_name": "FreeBSD",
        "os_version": "2.2.8",
        "pkg_name": "perl",
        "pkg_version": "5.005.02"
    },
    {
        "os_name": "FreeBSD",
        "os_version": "2.2.8",
        "pkg_name": "perl",
        "pkg_version": "5.005.02"
    },
    {
        "os_name": "FreeBSD",
        "os_version": "5.5",
        "pkg_name": "perl",
        "pkg_version": "5.1.2"
    },
    {
        "os_name": "FreeBSD",
        "os_version": "7.4",
        "pkg_name": "perl",
        "pkg_version": "5.12.3"
    },
    {
        "os_name": "FreeBSD",
        "os_version": "7.4",
        "pkg_name": "perl",
        "pkg_version": "5.12.3"
    },
    {
        "os_name": "FreeBSD",
        "os_version": "8.2",
        "pkg_name": "perl",
        "pkg_version": "5.12.3"
    },
    {
        "os_name": "FreeBSD",
        "os_version": "8.2",
        "pkg_name": "perl",
        "pkg_version": "5.12.3"
    },
    {
        "os_name": "FreeBSD",
        "os_version": "9.3",
        "pkg_name": "perl",
        "pkg_version": "5.16.3"
    },
    {
        "os_name": "FreeBSD",
        "os_version": "9.3",
        "pkg_name": "perl",
        "pkg_version": "5.16.3"
    },
    {
        "os_name": "FreeBSD",
        "os_version": "10.1",
        "pkg_name": "perl",
        "pkg_version": "5.18.1"
    },
    {
        "os_name": "FreeBSD",
        "os_version": "10.2",
        "pkg_name": "perl",
        "pkg_version": "5.18.1"
    },
    {
        "os_name": "FreeBSD",
        "os_version": "9.3",
        "pkg_name": "perl",
        "pkg_version": "5.18.2"
    },
    {
        "os_name": "FreeBSD",
        "os_version": "6.4",
        "pkg_name": "perl",
        "pkg_version": "5.2.6"
    },
    {
        "os_name": "FreeBSD",
        "os_version": "10.2",
        "pkg_name": "perl",
        "pkg_version": "5.20.2"
    },
    {
        "os_name": "FreeBSD",
        "os_version": "10.2",
        "pkg_name": "perl",
        "pkg_version": "5.20.2"
    },
    {
        "os_name": "FreeBSD",
        "os_version": "10",
        "pkg_name": "perl",
        "pkg_version": "5.20.3"
    },
    {
        "os_name": "FreeBSD",
        "os_version": "10",
        "pkg_name": "perl",
        "pkg_version": "5.20.3"
    },
    {
        "os_name": "FreeBSD",
        "os_version": "11",
        "pkg_name": "perl",
        "pkg_version": "5.20.3"
    },
    {
        "os_name": "FreeBSD",
        "os_version": "11",
        "pkg_name": "perl",
        "pkg_version": "5.20.3"
    },
    {
        "os_name": "FreeBSD",
        "os_version": "7.4",
        "pkg_name": "perl",
        "pkg_version": "5.3.5"
    },
    {
        "os_name": "FreeBSD",
        "os_version": "8.2",
        "pkg_name": "perl",
        "pkg_version": "5.3.5"
    },
    {
        "os_name": "FreeBSD",
        "os_version": "10.1",
        "pkg_name": "perl",
        "pkg_version": "5.4.23"
    },
    {
        "os_name": "FreeBSD",
        "os_version": "9.3",
        "pkg_name": "perl",
        "pkg_version": "5.4.26"
    },
    {
        "os_name": "FreeBSD",
        "os_version": "4.11",
        "pkg_name": "perl",
        "pkg_version": "5.8.5"
    },
    {
        "os_name": "FreeBSD",
        "os_version": "4.11",
        "pkg_name": "perl",
        "pkg_version": "5.8.5"
    },
    {
        "os_name": "FreeBSD",
        "os_version": "5.5",
        "pkg_name": "perl",
        "pkg_version": "5.8.8"
    },
    {
        "os_name": "FreeBSD",
        "os_version": "5.5",
        "pkg_name": "perl",
        "pkg_version": "5.8.8"
    },
    {
        "os_name": "FreeBSD",
        "os_version": "6.4",
        "pkg_name": "perl",
        "pkg_version": "5.8.8"
    },
    {
        "os_name": "FreeBSD",
        "os_version": "6.4",
        "pkg_name": "perl",
        "pkg_version": "5.8.8"
    },
    {
        "os_name": "FreeBSD",
        "os_version": "4.11",
        "pkg_name": "php",
        "pkg_version": "2.6.1-rc1"
    },
    {
        "os_name": "FreeBSD",
        "os_version": "5.5",
        "pkg_name": "php",
        "pkg_version": "2.7.0-pl2"
    },
    {
        "os_name": "FreeBSD",
        "os_version": "6.4",
        "pkg_name": "php",
        "pkg_version": "3.0.1.1"
    },
    {
        "os_name": "FreeBSD",
        "os_version": "7.4",
        "pkg_name": "php",
        "pkg_version": "3.3.9.1"
    },
    {
        "os_name": "FreeBSD",
        "os_version": "8.2",
        "pkg_name": "php",
        "pkg_version": "3.3.9.1"
    },
    {
        "os_name": "FreeBSD",
        "os_version": "9.3",
        "pkg_name": "php",
        "pkg_version": "4.2.4"
    },
    {
        "os_name": "FreeBSD",
        "os_version": "4.11",
        "pkg_name": "php",
        "pkg_version": "5.0.3"
    },
    {
        "os_name": "FreeBSD",
        "os_version": "4.11",
        "pkg_name": "php",
        "pkg_version": "5.0.3"
    },
    {
        "os_name": "FreeBSD",
        "os_version": "5.5",
        "pkg_name": "php",
        "pkg_version": "5.1.2"
    },
    {
        "os_name": "FreeBSD",
        "os_version": "5.5",
        "pkg_name": "php",
        "pkg_version": "5.1.2"
    },
    {
        "os_name": "FreeBSD",
        "os_version": "6.4",
        "pkg_name": "php",
        "pkg_version": "5.2.6"
    },
    {
        "os_name": "FreeBSD",
        "os_version": "6.4",
        "pkg_name": "php",
        "pkg_version": "5.2.6"
    },
    {
        "os_name": "FreeBSD",
        "os_version": "7.4",
        "pkg_name": "php",
        "pkg_version": "5.3.5"
    },
    {
        "os_name": "FreeBSD",
        "os_version": "7.4",
        "pkg_name": "php",
        "pkg_version": "5.3.5"
    },
    {
        "os_name": "FreeBSD",
        "os_version": "8.2",
        "pkg_name": "php",
        "pkg_version": "5.3.5"
    },
    {
        "os_name": "FreeBSD",
        "os_version": "8.2",
        "pkg_name": "php",
        "pkg_version": "5.3.5"
    },
    {
        "os_name": "FreeBSD",
        "os_version": "10.1",
        "pkg_name": "php",
        "pkg_version": "5.4.23"
    },
    {
        "os_name": "FreeBSD",
        "os_version": "10.2",
        "pkg_name": "php",
        "pkg_version": "5.4.23"
    },
    {
        "os_name": "FreeBSD",
        "os_version": "9.3",
        "pkg_name": "php",
        "pkg_version": "5.4.26"
    },
    {
        "os_name": "FreeBSD",
        "os_version": "10",
        "pkg_name": "php",
        "pkg_version": "5.4.38"
    },
    {
        "os_name": "FreeBSD",
        "os_version": "11",
        "pkg_name": "php",
        "pkg_version": "5.4.38"
    },
    {
        "os_name": "FreeBSD",
        "os_version": "10",
        "pkg_name": "php",
        "pkg_version": "5.4.39"
    },
    {
        "os_name": "FreeBSD",
        "os_version": "11",
        "pkg_name": "php",
        "pkg_version": "5.4.39"
    },
    {
        "os_name": "FreeBSD",
        "os_version": "10",
        "pkg_name": "php",
        "pkg_version": "5.4.45"
    },
    {
        "os_name": "FreeBSD",
        "os_version": "11",
        "pkg_name": "php",
        "pkg_version": "5.4.45"
    },
    {
        "os_name": "FreeBSD",
        "os_version": "9.3",
        "pkg_name": "php",
        "pkg_version": "5.5.10"
    },
    {
        "os_name": "FreeBSD",
        "os_version": "9.3",
        "pkg_name": "php",
        "pkg_version": "5.5.10"
    },
    {
        "os_name": "FreeBSD",
        "os_version": "10.2",
        "pkg_name": "php",
        "pkg_version": "5.6.11"
    },
    {
        "os_name": "FreeBSD",
        "os_version": "10.2",
        "pkg_name": "php",
        "pkg_version": "5.6.11"
    },
    {
        "os_name": "FreeBSD",
        "os_version": "4.11",
        "pkg_name": "phpMyAdmin",
        "pkg_version": "1.1.1"
    },
    {
        "os_name": "FreeBSD",
        "os_version": "5.5",
        "pkg_name": "phpMyAdmin",
        "pkg_version": "1.5.0"
    },
    {
        "os_name": "FreeBSD",
        "os_version": "10.1",
        "pkg_name": "phpMyAdmin",
        "pkg_version": "2.10.7"
    },
    {
        "os_name": "FreeBSD",
        "os_version": "9.3",
        "pkg_name": "phpMyAdmin",
        "pkg_version": "2.10.9"
    },
    {
        "os_name": "FreeBSD",
        "os_version": "6.4",
        "pkg_name": "phpMyAdmin",
        "pkg_version": "2.5.1"
    },
    {
        "os_name": "FreeBSD",
        "os_version": "4.11",
        "pkg_name": "phpMyAdmin",
        "pkg_version": "2.6.1-rc1"
    },
    {
        "os_name": "FreeBSD",
        "os_version": "4.11",
        "pkg_name": "phpMyAdmin",
        "pkg_version": "2.6.1-rc1"
    },
    {
        "os_name": "FreeBSD",
        "os_version": "5.5",
        "pkg_name": "phpMyAdmin",
        "pkg_version": "2.7.0-pl2"
    },
    {
        "os_name": "FreeBSD",
        "os_version": "5.5",
        "pkg_name": "phpMyAdmin",
        "pkg_version": "2.7.0-pl2"
    },
    {
        "os_name": "FreeBSD",
        "os_version": "7.4",
        "pkg_name": "phpMyAdmin",
        "pkg_version": "2.7.9"
    },
    {
        "os_name": "FreeBSD",
        "os_version": "8.2",
        "pkg_name": "phpMyAdmin",
        "pkg_version": "2.7.9"
    },
    {
        "os_name": "FreeBSD",
        "os_version": "6.4",
        "pkg_name": "phpMyAdmin",
        "pkg_version": "3.0.1.1"
    },
    {
        "os_name": "FreeBSD",
        "os_version": "6.4",
        "pkg_name": "phpMyAdmin",
        "pkg_version": "3.0.1.1"
    },
    {
        "os_name": "FreeBSD",
        "os_version": "7.4",
        "pkg_name": "phpMyAdmin",
        "pkg_version": "3.3.9.1"
    },
    {
        "os_name": "FreeBSD",
        "os_version": "7.4",
        "pkg_name": "phpMyAdmin",
        "pkg_version": "3.3.9.1"
    },
    {
        "os_name": "FreeBSD",
        "os_version": "8.2",
        "pkg_name": "phpMyAdmin",
        "pkg_version": "3.3.9.1"
    },
    {
        "os_name": "FreeBSD",
        "os_version": "8.2",
        "pkg_name": "phpMyAdmin",
        "pkg_version": "3.3.9.1"
    },
    {
        "os_name": "FreeBSD",
        "os_version": "9.3",
        "pkg_name": "phpMyAdmin",
        "pkg_version": "4.2.4"
    },
    {
        "os_name": "FreeBSD",
        "os_version": "9.3",
        "pkg_name": "phpMyAdmin",
        "pkg_version": "4.2.4"
    },
    {
        "os_name": "FreeBSD",
        "os_version": "10",
        "pkg_name": "phpMyAdmin",
        "pkg_version": "4.3.12"
    },
    {
        "os_name": "FreeBSD",
        "os_version": "11",
        "pkg_name": "phpMyAdmin",
        "pkg_version": "4.3.12"
    },
    {
        "os_name": "FreeBSD",
        "os_version": "10",
        "pkg_name": "phpMyAdmin",
        "pkg_version": "4.3.13"
    },
    {
        "os_name": "FreeBSD",
        "os_version": "11",
        "pkg_name": "phpMyAdmin",
        "pkg_version": "4.3.13"
    },
    {
        "os_name": "FreeBSD",
        "os_version": "10",
        "pkg_name": "phpMyAdmin",
        "pkg_version": "4.4.0"
    },
    {
        "os_name": "FreeBSD",
        "os_version": "11",
        "pkg_name": "phpMyAdmin",
        "pkg_version": "4.4.0"
    },
    {
        "os_name": "FreeBSD",
        "os_version": "10",
        "pkg_name": "phpMyAdmin",
        "pkg_version": "4.4.1.1"
    },
    {
        "os_name": "FreeBSD",
        "os_version": "11",
        "pkg_name": "phpMyAdmin",
        "pkg_version": "4.4.1.1"
    },
    {
        "os_name": "FreeBSD",
        "os_version": "10.2",
        "pkg_name": "phpMyAdmin",
        "pkg_version": "4.4.10"
    },
    {
        "os_name": "FreeBSD",
        "os_version": "10.2",
        "pkg_name": "phpMyAdmin",
        "pkg_version": "4.4.10"
    },
    {
        "os_name": "FreeBSD",
        "os_version": "10",
        "pkg_name": "phpMyAdmin",
        "pkg_version": "4.4.2"
    },
    {
        "os_name": "FreeBSD",
        "os_version": "11",
        "pkg_name": "phpMyAdmin",
        "pkg_version": "4.4.2"
    },
    {
        "os_name": "FreeBSD",
        "os_version": "10",
        "pkg_name": "phpMyAdmin",
        "pkg_version": "4.5.2"
    },
    {
        "os_name": "FreeBSD",
        "os_version": "11",
        "pkg_name": "phpMyAdmin",
        "pkg_version": "4.5.2"
    },
    {
        "os_name": "FreeBSD",
        "os_version": "10",
        "pkg_name": "phpMyAdmin",
        "pkg_version": "4.5.3"
    },
    {
        "os_name": "FreeBSD",
        "os_version": "11",
        "pkg_name": "phpMyAdmin",
        "pkg_version": "4.5.3"
    },
    {
        "os_name": "FreeBSD",
        "os_version": "10",
        "pkg_name": "phpMyAdmin",
        "pkg_version": "4.5.3.1"
    },
    {
        "os_name": "FreeBSD",
        "os_version": "11",
        "pkg_name": "phpMyAdmin",
        "pkg_version": "4.5.3.1"
    },
    {
        "os_name": "FreeBSD",
        "os_version": "10",
        "pkg_name": "phpMyAdmin",
        "pkg_version": "4.5.4.1"
    },
    {
        "os_name": "FreeBSD",
        "os_version": "11",
        "pkg_name": "phpMyAdmin",
        "pkg_version": "4.5.4.1"
    },
    {
        "os_name": "FreeBSD",
        "os_version": "10",
        "pkg_name": "phpMyAdmin",
        "pkg_version": "4.5.5"
    },
    {
        "os_name": "FreeBSD",
        "os_version": "11",
        "pkg_name": "phpMyAdmin",
        "pkg_version": "4.5.5"
    },
    {
        "os_name": "FreeBSD",
        "os_version": "10",
        "pkg_name": "phpMyAdmin",
        "pkg_version": "4.5.5.1"
    },
    {
        "os_name": "FreeBSD",
        "os_version": "11",
        "pkg_name": "phpMyAdmin",
        "pkg_version": "4.5.5.1"
    },
    {
        "os_name": "FreeBSD",
        "os_version": "10",
        "pkg_name": "phpMyAdmin",
        "pkg_version": "4.6.0"
    },
    {
        "os_name": "FreeBSD",
        "os_version": "10",
        "pkg_name": "phpMyAdmin",
        "pkg_version": "4.6.0"
    },
    {
        "os_name": "FreeBSD",
        "os_version": "11",
        "pkg_name": "phpMyAdmin",
        "pkg_version": "4.6.0"
    },
    {
        "os_name": "FreeBSD",
        "os_version": "4.11",
        "pkg_name": "ruby",
        "pkg_version": "1.8.2"
    },
    {
        "os_name": "FreeBSD",
        "os_version": "4.11",
        "pkg_name": "ruby",
        "pkg_version": "1.8.2"
    },
    {
        "os_name": "FreeBSD",
        "os_version": "5.5",
        "pkg_name": "ruby",
        "pkg_version": "1.8.4"
    },
    {
        "os_name": "FreeBSD",
        "os_version": "5.5",
        "pkg_name": "ruby",
        "pkg_version": "1.8.4"
    },
    {
        "os_name": "FreeBSD",
        "os_version": "6.4",
        "pkg_name": "ruby",
        "pkg_version": "1.8.6-p287"
    },
    {
        "os_name": "FreeBSD",
        "os_version": "6.4",
        "pkg_name": "ruby",
        "pkg_version": "1.8.6-p287"
    },
    {
        "os_name": "FreeBSD",
        "os_version": "2.2.8",
        "pkg_name": "ruby",
        "pkg_version": "1.9.18.10"
    },
    {
        "os_name": "FreeBSD",
        "os_version": "7.4",
        "pkg_name": "ruby",
        "pkg_version": "1.9.2-p0"
    },
    {
        "os_name": "FreeBSD",
        "os_version": "7.4",
        "pkg_name": "ruby",
        "pkg_version": "1.9.2-p0"
    },
    {
        "os_name": "FreeBSD",
        "os_version": "8.2",
        "pkg_name": "ruby",
        "pkg_version": "1.9.2-p0"
    },
    {
        "os_name": "FreeBSD",
        "os_version": "8.2",
        "pkg_name": "ruby",
        "pkg_version": "1.9.2-p0"
    },
    {
        "os_name": "FreeBSD",
        "os_version": "10.1",
        "pkg_name": "ruby",
        "pkg_version": "1.9.3-p484"
    },
    {
        "os_name": "FreeBSD",
        "os_version": "10.2",
        "pkg_name": "ruby",
        "pkg_version": "1.9.3-p484"
    },
    {
        "os_name": "FreeBSD",
        "os_version": "9.3",
        "pkg_name": "ruby",
        "pkg_version": "1.9.3-p484"
    },
    {
        "os_name": "FreeBSD",
        "os_version": "9.3",
        "pkg_name": "ruby",
        "pkg_version": "1.9.3-p484"
    },
    {
        "os_name": "FreeBSD",
        "os_version": "10",
        "pkg_name": "ruby",
        "pkg_version": "2.1.5"
    },
    {
        "os_name": "FreeBSD",
        "os_version": "11",
        "pkg_name": "ruby",
        "pkg_version": "2.1.5"
    },
    {
        "os_name": "FreeBSD",
        "os_version": "10.2",
        "pkg_name": "ruby",
        "pkg_version": "2.1.6"
    },
    {
        "os_name": "FreeBSD",
        "os_version": "10.2",
        "pkg_name": "ruby",
        "pkg_version": "2.1.6"
    },
    {
        "os_name": "FreeBSD",
        "os_version": "10",
        "pkg_name": "ruby",
        "pkg_version": "2.1.7"
    },
    {
        "os_name": "FreeBSD",
        "os_version": "11",
        "pkg_name": "ruby",
        "pkg_version": "2.1.7"
    },
    {
        "os_name": "FreeBSD",
        "os_version": "10",
        "pkg_name": "ruby",
        "pkg_version": "2.1.8"
    },
    {
        "os_name": "FreeBSD",
        "os_version": "10",
        "pkg_name": "ruby",
        "pkg_version": "2.1.8"
    },
    {
        "os_name": "FreeBSD",
        "os_version": "11",
        "pkg_name": "ruby",
        "pkg_version": "2.1.8"
    },
    {
        "os_name": "FreeBSD",
        "os_version": "11",
        "pkg_name": "ruby",
        "pkg_version": "2.1.8"
    },
    {
        "os_name": "FreeBSD",
        "os_version": "4.11",
        "pkg_name": "ruby",
        "pkg_version": "3.0.10"
    },
    {
        "os_name": "FreeBSD",
        "os_version": "5.5",
        "pkg_name": "ruby",
        "pkg_version": "3.0.21b"
    },
    {
        "os_name": "FreeBSD",
        "os_version": "6.4",
        "pkg_name": "ruby",
        "pkg_version": "3.0.32"
    },
    {
        "os_name": "FreeBSD",
        "os_version": "7.4",
        "pkg_name": "ruby",
        "pkg_version": "3.5.6"
    },
    {
        "os_name": "FreeBSD",
        "os_version": "8.2",
        "pkg_name": "ruby",
        "pkg_version": "3.5.6"
    },
    {
        "os_name": "FreeBSD",
        "os_version": "10.1",
        "pkg_name": "ruby",
        "pkg_version": "4.0.13"
    },
    {
        "os_name": "FreeBSD",
        "os_version": "9.3",
        "pkg_name": "ruby",
        "pkg_version": "4.1.6"
    },
    {
        "os_name": "FreeBSD",
        "os_version": "2.2.8",
        "pkg_name": "subversion",
        "pkg_version": "0.3.17"
    },
    {
        "os_name": "FreeBSD",
        "os_version": "3.5",
        "pkg_name": "subversion",
        "pkg_version": "0.3.17"
    },
    {
        "os_name": "FreeBSD",
        "os_version": "4.11",
        "pkg_name": "subversion",
        "pkg_version": "1.0.0rc1"
    },
    {
        "os_name": "FreeBSD",
        "os_version": "4.11",
        "pkg_name": "subversion",
        "pkg_version": "1.1.1"
    },
    {
        "os_name": "FreeBSD",
        "os_version": "4.11",
        "pkg_name": "subversion",
        "pkg_version": "1.1.1"
    },
    {
        "os_name": "FreeBSD",
        "os_version": "5.5",
        "pkg_name": "subversion",
        "pkg_version": "1.3.0"
    },
    {
        "os_name": "FreeBSD",
        "os_version": "5.5",
        "pkg_name": "subversion",
        "pkg_version": "1.3.0"
    },
    {
        "os_name": "FreeBSD",
        "os_version": "6.4",
        "pkg_name": "subversion",
        "pkg_version": "1.5.2"
    },
    {
        "os_name": "FreeBSD",
        "os_version": "6.4",
        "pkg_name": "subversion",
        "pkg_version": "1.5.2"
    },
    {
        "os_name": "FreeBSD",
        "os_version": "7.4",
        "pkg_name": "subversion",
        "pkg_version": "1.6.15"
    },
    {
        "os_name": "FreeBSD",
        "os_version": "7.4",
        "pkg_name": "subversion",
        "pkg_version": "1.6.15"
    },
    {
        "os_name": "FreeBSD",
        "os_version": "8.2",
        "pkg_name": "subversion",
        "pkg_version": "1.6.15"
    },
    {
        "os_name": "FreeBSD",
        "os_version": "8.2",
        "pkg_name": "subversion",
        "pkg_version": "1.6.15"
    },
    {
        "os_name": "FreeBSD",
        "os_version": "10",
        "pkg_name": "subversion",
        "pkg_version": "1.8.11"
    },
    {
        "os_name": "FreeBSD",
        "os_version": "11",
        "pkg_name": "subversion",
        "pkg_version": "1.8.11"
    },
    {
        "os_name": "FreeBSD",
        "os_version": "10",
        "pkg_name": "subversion",
        "pkg_version": "1.8.13"
    },
    {
        "os_name": "FreeBSD",
        "os_version": "10.2",
        "pkg_name": "subversion",
        "pkg_version": "1.8.13"
    },
    {
        "os_name": "FreeBSD",
        "os_version": "10.2",
        "pkg_name": "subversion",
        "pkg_version": "1.8.13"
    },
    {
        "os_name": "FreeBSD",
        "os_version": "11",
        "pkg_name": "subversion",
        "pkg_version": "1.8.13"
    },
    {
        "os_name": "FreeBSD",
        "os_version": "10.1",
        "pkg_name": "subversion",
        "pkg_version": "1.8.5"
    },
    {
        "os_name": "FreeBSD",
        "os_version": "10.2",
        "pkg_name": "subversion",
        "pkg_version": "1.8.5"
    },
    {
        "os_name": "FreeBSD",
        "os_version": "9.3",
        "pkg_name": "subversion",
        "pkg_version": "1.8.8"
    },
    {
        "os_name": "FreeBSD",
        "os_version": "9.3",
        "pkg_name": "subversion",
        "pkg_version": "1.8.8"
    },
    {
        "os_name": "FreeBSD",
        "os_version": "10",
        "pkg_name": "subversion",
        "pkg_version": "1.9.2"
    },
    {
        "os_name": "FreeBSD",
        "os_version": "11",
        "pkg_name": "subversion",
        "pkg_version": "1.9.2"
    },
    {
        "os_name": "FreeBSD",
        "os_version": "10",
        "pkg_name": "subversion",
        "pkg_version": "1.9.3"
    },
    {
        "os_name": "FreeBSD",
        "os_version": "10",
        "pkg_name": "subversion",
        "pkg_version": "1.9.3"
    },
    {
        "os_name": "FreeBSD",
        "os_version": "11",
        "pkg_name": "subversion",
        "pkg_version": "1.9.3"
    },
    {
        "os_name": "FreeBSD",
        "os_version": "11",
        "pkg_name": "subversion",
        "pkg_version": "1.9.3"
    },
    {
        "os_name": "FreeBSD",
        "os_version": "5.5",
        "pkg_name": "subversion",
        "pkg_version": "2.2.0"
    },
    {
        "os_name": "FreeBSD",
        "os_version": "6.4",
        "pkg_name": "subversion",
        "pkg_version": "2.5.0"
    },
    {
        "os_name": "FreeBSD",
        "os_version": "7.4",
        "pkg_name": "subversion",
        "pkg_version": "3.0.3"
    },
    {
        "os_name": "FreeBSD",
        "os_version": "8.2",
        "pkg_name": "subversion",
        "pkg_version": "3.0.3"
    },
    {
        "os_name": "FreeBSD",
        "os_version": "10.1",
        "pkg_name": "subversion",
        "pkg_version": "3.3.0"
    },
    {
        "os_name": "FreeBSD",
        "os_version": "9.3",
        "pkg_name": "subversion",
        "pkg_version": "3.3.1"
    },
    {
        "os_name": "FreeBSD",
        "os_version": "5.5",
        "pkg_name": "webmin",
        "pkg_version": "1.10.2"
    },
    {
        "os_name": "FreeBSD",
        "os_version": "6.4",
        "pkg_name": "webmin",
        "pkg_version": "1.11.2"
    },
    {
        "os_name": "FreeBSD",
        "os_version": "7.4",
        "pkg_name": "webmin",
        "pkg_version": "1.12"
    },
    {
        "os_name": "FreeBSD",
        "os_version": "8.2",
        "pkg_name": "webmin",
        "pkg_version": "1.12"
    },
    {
        "os_name": "FreeBSD",
        "os_version": "10.1",
        "pkg_name": "webmin",
        "pkg_version": "1.14"
    },
    {
        "os_name": "FreeBSD",
        "os_version": "9.3",
        "pkg_name": "webmin",
        "pkg_version": "1.15"
    },
    {
        "os_name": "FreeBSD",
        "os_version": "4.11",
        "pkg_name": "webmin",
        "pkg_version": "1.170"
    },
    {
        "os_name": "FreeBSD",
        "os_version": "4.11",
        "pkg_name": "webmin",
        "pkg_version": "1.170"
    },
    {
        "os_name": "FreeBSD",
        "os_version": "5.5",
        "pkg_name": "webmin",
        "pkg_version": "1.260"
    },
    {
        "os_name": "FreeBSD",
        "os_version": "5.5",
        "pkg_name": "webmin",
        "pkg_version": "1.260"
    },
    {
        "os_name": "FreeBSD",
        "os_version": "6.4",
        "pkg_name": "webmin",
        "pkg_version": "1.430"
    },
    {
        "os_name": "FreeBSD",
        "os_version": "6.4",
        "pkg_name": "webmin",
        "pkg_version": "1.430"
    },
    {
        "os_name": "FreeBSD",
        "os_version": "2.2.8",
        "pkg_name": "webmin",
        "pkg_version": "1.5.3"
    },
    {
        "os_name": "FreeBSD",
        "os_version": "7.4",
        "pkg_name": "webmin",
        "pkg_version": "1.530"
    },
    {
        "os_name": "FreeBSD",
        "os_version": "7.4",
        "pkg_name": "webmin",
        "pkg_version": "1.530"
    },
    {
        "os_name": "FreeBSD",
        "os_version": "8.2",
        "pkg_name": "webmin",
        "pkg_version": "1.530"
    },
    {
        "os_name": "FreeBSD",
        "os_version": "8.2",
        "pkg_name": "webmin",
        "pkg_version": "1.530"
    },
    {
        "os_name": "FreeBSD",
        "os_version": "10.1",
        "pkg_name": "webmin",
        "pkg_version": "1.660"
    },
    {
        "os_name": "FreeBSD",
        "os_version": "10.2",
        "pkg_name": "webmin",
        "pkg_version": "1.660"
    },
    {
        "os_name": "FreeBSD",
        "os_version": "9.3",
        "pkg_name": "webmin",
        "pkg_version": "1.680"
    },
    {
        "os_name": "FreeBSD",
        "os_version": "9.3",
        "pkg_name": "webmin",
        "pkg_version": "1.680"
    },
    {
        "os_name": "FreeBSD",
        "os_version": "10",
        "pkg_name": "webmin",
        "pkg_version": "1.740"
    },
    {
        "os_name": "FreeBSD",
        "os_version": "11",
        "pkg_name": "webmin",
        "pkg_version": "1.740"
    },
    {
        "os_name": "FreeBSD",
        "os_version": "10.2",
        "pkg_name": "webmin",
        "pkg_version": "1.760"
    },
    {
        "os_name": "FreeBSD",
        "os_version": "10.2",
        "pkg_name": "webmin",
        "pkg_version": "1.760"
    },
    {
        "os_name": "FreeBSD",
        "os_version": "10",
        "pkg_name": "webmin",
        "pkg_version": "1.770"
    },
    {
        "os_name": "FreeBSD",
        "os_version": "11",
        "pkg_name": "webmin",
        "pkg_version": "1.770"
    },
    {
        "os_name": "FreeBSD",
        "os_version": "10",
        "pkg_name": "webmin",
        "pkg_version": "1.780"
    },
    {
        "os_name": "FreeBSD",
        "os_version": "10",
        "pkg_name": "webmin",
        "pkg_version": "1.780"
    },
    {
        "os_name": "FreeBSD",
        "os_version": "11",
        "pkg_name": "webmin",
        "pkg_version": "1.780"
    },
    {
        "os_name": "FreeBSD",
        "os_version": "11",
        "pkg_name": "webmin",
        "pkg_version": "1.780"
    },
    {
        "os_name": "FreeBSD",
        "os_version": "4.11",
        "pkg_name": "webmin",
        "pkg_version": "1.8.2"
    },
    {
        "os_name": "FreeBSD",
        "os_version": "4.11",
        "pkg_name": "wordpress",
        "pkg_version": "1.2.1"
    },
    {
        "os_name": "FreeBSD",
        "os_version": "4.11",
        "pkg_name": "wordpress",
        "pkg_version": "1.2.1"
    },
    {
        "os_name": "FreeBSD",
        "os_version": "5.5",
        "pkg_name": "wordpress",
        "pkg_version": "2.0.1"
    },
    {
        "os_name": "FreeBSD",
        "os_version": "5.5",
        "pkg_name": "wordpress",
        "pkg_version": "2.0.1"
    },
    {
        "os_name": "FreeBSD",
        "os_version": "6.4",
        "pkg_name": "wordpress",
        "pkg_version": "2.6.3"
    },
    {
        "os_name": "FreeBSD",
        "os_version": "6.4",
        "pkg_name": "wordpress",
        "pkg_version": "2.6.3"
    },
    {
        "os_name": "FreeBSD",
        "os_version": "7.4",
        "pkg_name": "wordpress",
        "pkg_version": "3.0.5"
    },
    {
        "os_name": "FreeBSD",
        "os_version": "7.4",
        "pkg_name": "wordpress",
        "pkg_version": "3.0.5"
    },
    {
        "os_name": "FreeBSD",
        "os_version": "8.2",
        "pkg_name": "wordpress",
        "pkg_version": "3.0.5"
    },
    {
        "os_name": "FreeBSD",
        "os_version": "8.2",
        "pkg_name": "wordpress",
        "pkg_version": "3.0.5"
    },
    {
        "os_name": "FreeBSD",
        "os_version": "10.1",
        "pkg_name": "wordpress",
        "pkg_version": "3.7.1"
    },
    {
        "os_name": "FreeBSD",
        "os_version": "10.2",
        "pkg_name": "wordpress",
        "pkg_version": "3.7.1"
    },
    {
        "os_name": "FreeBSD",
        "os_version": "9.3",
        "pkg_name": "wordpress",
        "pkg_version": "3.8.1"
    },
    {
        "os_name": "FreeBSD",
        "os_version": "9.3",
        "pkg_name": "wordpress",
        "pkg_version": "3.8.1"
    },
    {
        "os_name": "FreeBSD",
        "os_version": "4.11",
        "pkg_name": "wordpress",
        "pkg_version": "4.0.6"
    },
    {
        "os_name": "FreeBSD",
        "os_version": "10",
        "pkg_name": "wordpress",
        "pkg_version": "4.1"
    },
    {
        "os_name": "FreeBSD",
        "os_version": "11",
        "pkg_name": "wordpress",
        "pkg_version": "4.1"
    },
    {
        "os_name": "FreeBSD",
        "os_version": "10.1",
        "pkg_name": "wordpress",
        "pkg_version": "4.10.2"
    },
    {
        "os_name": "FreeBSD",
        "os_version": "9.3",
        "pkg_name": "wordpress",
        "pkg_version": "4.10.2"
    },
    {
        "os_name": "FreeBSD",
        "os_version": "10.2",
        "pkg_name": "wordpress",
        "pkg_version": "4.2.3"
    },
    {
        "os_name": "FreeBSD",
        "os_version": "10.2",
        "pkg_name": "wordpress",
        "pkg_version": "4.2.3"
    },
    {
        "os_name": "FreeBSD",
        "os_version": "5.5",
        "pkg_name": "wordpress",
        "pkg_version": "4.2.3.2"
    },
    {
        "os_name": "FreeBSD",
        "os_version": "10",
        "pkg_name": "wordpress",
        "pkg_version": "4.3.1"
    },
    {
        "os_name": "FreeBSD",
        "os_version": "11",
        "pkg_name": "wordpress",
        "pkg_version": "4.3.1"
    },
    {
        "os_name": "FreeBSD",
        "os_version": "10",
        "pkg_name": "wordpress",
        "pkg_version": "4.4"
    },
    {
        "os_name": "FreeBSD",
        "os_version": "11",
        "pkg_name": "wordpress",
        "pkg_version": "4.4"
    },
    {
        "os_name": "FreeBSD",
        "os_version": "10",
        "pkg_name": "wordpress",
        "pkg_version": "4.4.1"
    },
    {
        "os_name": "FreeBSD",
        "os_version": "11",
        "pkg_name": "wordpress",
        "pkg_version": "4.4.1"
    },
    {
        "os_name": "FreeBSD",
        "os_version": "10",
        "pkg_name": "wordpress",
        "pkg_version": "4.4.2"
    },
    {
        "os_name": "FreeBSD",
        "os_version": "10",
        "pkg_name": "wordpress",
        "pkg_version": "4.4.2"
    },
    {
        "os_name": "FreeBSD",
        "os_version": "11",
        "pkg_name": "wordpress",
        "pkg_version": "4.4.2"
    },
    {
        "os_name": "FreeBSD",
        "os_version": "11",
        "pkg_name": "wordpress",
        "pkg_version": "4.4.2"
    },
    {
        "os_name": "FreeBSD",
        "os_version": "6.4",
        "pkg_name": "wordpress",
        "pkg_version": "4.4.2"
    },
    {
        "os_name": "FreeBSD",
        "os_version": "7.4",
        "pkg_name": "wordpress",
        "pkg_version": "4.6.2"
    },
    {
        "os_name": "FreeBSD",
        "os_version": "8.2",
        "pkg_name": "wordpress",
        "pkg_version": "4.6.2"
    }
]